participant_id	age	left-handed	Do you like this session?	session	stim_file	response	response_time	trial_type	trial
5	25	False	No	post	../../stimuli/shapes/target_plus.jpg	1	0.6918910186161806	practice	shapes
5	25	False	No	post	../../stimuli/shapes/target_square.jpg	1	0.3810906997461804	practice	shapes
5	25	False	No	post	../../stimuli/shapes/target_plus.jpg	0	0.563686753390759	practice	shapes
5	25	False	No	post	../../stimuli/shapes/target_plus.jpg	1	0.3063506832569074	practice	shapes
5	25	False	No	post	../../stimuli/shapes/target_square.jpg	1	0.8730755943498891	practice	shapes
5	25	False	No	post	../../stimuli/shapes/target_square.jpg	1	0.3899141026652339	practice	shapes
5	25	False	No	post	../../stimuli/shapes/target_plus.jpg	1	0.3128994031167522	experiment	shapes
5	25	False	No	post	../../stimuli/shapes/target_square.jpg	1	0.6025685487247585	experiment	shapes
5	25	False	No	post	../../stimuli/shapes/target_square.jpg	1	0.888085051918853	experiment	shapes
5	25	False	No	post	../../stimuli/shapes/target_square.jpg	1	0.5745058480116376	experiment	shapes
5	25	False	No	post	../../stimuli/shapes/target_cross.jpg	1	0.4256481263966833	experiment	shapes
5	25	False	No	post	../../stimuli/shapes/target_plus.jpg	1	0.8275891838353633	experiment	shapes
5	25	False	No	post	../../stimuli/shapes/target_plus.jpg	1	0.8521648873095209	experiment	shapes
5	25	False	No	post	../../stimuli/shapes/target_cross.jpg	1	0.4216274327152967	experiment	shapes
5	25	False	No	post	../../stimuli/shapes/target_plus.jpg	1	0.8395978759786928	experiment	shapes
5	25	False	No	post	../../stimuli/shapes/target_square.jpg	1	0.9631085217794366	experiment	shapes
5	25	False	No	post	../../stimuli/shapes/target_plus.jpg	1	0.4164643108525906	experiment	shapes
5	25	False	No	post	../../stimuli/shapes/target_square.jpg	1	0.8396890047724948	experiment	shapes
5	25	False	No	post	../../stimuli/shapes/target_wombat.jpg	0	0.773236580030728	practice	images
5	25	False	No	post	../../stimuli/images/target_capybara.jpg	1	0.6121708149072249	practice	images
5	25	False	No	post	../../stimuli/shapes/target_platypus.jpg	1	0.7533015503813353	practice	images
5	25	False	No	post	../../stimuli/shapes/target_platypus.jpg	1	0.7160771014599817	practice	images
5	25	False	No	post	../../stimuli/shapes/target_platypus.jpg	1	0.5685285822839352	practice	images
5	25	False	No	post	../../stimuli/shapes/target_wombat.jpg	1	0.345938301201809	practice	images
5	25	False	No	post	../../stimuli/shapes/target_wombat.jpg	0	0.5602834704671071	experiment	images
5	25	False	No	post	../../stimuli/shapes/target_platypus.jpg	1	0.8731499503499656	experiment	images
5	25	False	No	post	../../stimuli/images/target_capybara.jpg	1	0.4767561247818675	experiment	images
5	25	False	No	post	../../stimuli/shapes/target_wombat.jpg	1	0.3007206358919433	experiment	images
5	25	False	No	post	../../stimuli/shapes/target_platypus.jpg	1	0.4112567982937295	experiment	images
5	25	False	No	post	../../stimuli/shapes/target_platypus.jpg	1	0.627977591738009	experiment	images
5	25	False	No	post	../../stimuli/shapes/target_wombat.jpg	1	0.9610125444704808	experiment	images
5	25	False	No	post	../../stimuli/shapes/target_wombat.jpg	1	0.3715355337856033	experiment	images
5	25	False	No	post	../../stimuli/shapes/target_wombat.jpg	1	0.8979468421230961	experiment	images
5	25	False	No	post	../../stimuli/images/target_capybara.jpg	1	0.6689168673483035	experiment	images
5	25	False	No	post	../../stimuli/images/target_capybara.jpg	1	0.8781445360599276	experiment	images
5	25	False	No	post	../../stimuli/shapes/target_platypus.jpg	1	0.5088621016929948	experiment	images
