participant_id	age	left-handed	Do you like this session?	session	stim_file	response	response_time	trial_type	trial
6	38	False	Yes	post	../../stimuli/shapes/target_square.jpg	1	0.7480020767858395	practice	shapes
6	38	False	Yes	post	../../stimuli/shapes/target_plus.jpg	1	0.4572908238808759	practice	shapes
6	38	False	Yes	post	../../stimuli/shapes/target_plus.jpg	1	0.4260073062309064	practice	shapes
6	38	False	Yes	post	../../stimuli/shapes/target_plus.jpg	1	0.3619889089562689	practice	shapes
6	38	False	Yes	post	../../stimuli/shapes/target_plus.jpg	1	0.3723162699868109	practice	shapes
6	38	False	Yes	post	../../stimuli/shapes/target_cross.jpg	0	0.709269490309812	practice	shapes
6	38	False	Yes	post	../../stimuli/shapes/target_plus.jpg	0	0.5781652919250806	experiment	shapes
6	38	False	Yes	post	../../stimuli/shapes/target_cross.jpg	1	0.6359279571144512	experiment	shapes
6	38	False	Yes	post	../../stimuli/shapes/target_cross.jpg	1	0.7801774151880888	experiment	shapes
6	38	False	Yes	post	../../stimuli/shapes/target_cross.jpg	1	0.3121658531298357	experiment	shapes
6	38	False	Yes	post	../../stimuli/shapes/target_square.jpg	1	0.5261914599491949	experiment	shapes
6	38	False	Yes	post	../../stimuli/shapes/target_cross.jpg	1	0.9811684236492424	experiment	shapes
6	38	False	Yes	post	../../stimuli/shapes/target_cross.jpg	1	0.7060785607868276	experiment	shapes
6	38	False	Yes	post	../../stimuli/shapes/target_square.jpg	1	0.4779572059282452	experiment	shapes
6	38	False	Yes	post	../../stimuli/shapes/target_square.jpg	1	0.6652110326453491	experiment	shapes
6	38	False	Yes	post	../../stimuli/shapes/target_square.jpg	1	0.5398574416846407	experiment	shapes
6	38	False	Yes	post	../../stimuli/shapes/target_plus.jpg	1	0.6725714921784094	experiment	shapes
6	38	False	Yes	post	../../stimuli/shapes/target_square.jpg	1	0.3880190582646541	experiment	shapes
6	38	False	Yes	post	../../stimuli/images/target_capybara.jpg	1	0.8115806324096133	practice	images
6	38	False	Yes	post	../../stimuli/shapes/target_wombat.jpg	1	0.4093146913545217	practice	images
6	38	False	Yes	post	../../stimuli/images/target_capybara.jpg	1	0.46419290533438	practice	images
6	38	False	Yes	post	../../stimuli/shapes/target_platypus.jpg	0	0.9743427829742792	practice	images
6	38	False	Yes	post	../../stimuli/images/target_capybara.jpg	1	0.4787145673099022	practice	images
6	38	False	Yes	post	../../stimuli/shapes/target_platypus.jpg	1	0.7631426452598027	practice	images
6	38	False	Yes	post	../../stimuli/images/target_capybara.jpg	1	0.5620077369978549	experiment	images
6	38	False	Yes	post	../../stimuli/images/target_capybara.jpg	1	0.3122611936034435	experiment	images
6	38	False	Yes	post	../../stimuli/images/target_capybara.jpg	1	0.470903103295662	experiment	images
6	38	False	Yes	post	../../stimuli/images/target_capybara.jpg	1	0.8816140339391938	experiment	images
6	38	False	Yes	post	../../stimuli/shapes/target_platypus.jpg	1	0.9052261851685256	experiment	images
6	38	False	Yes	post	../../stimuli/shapes/target_platypus.jpg	1	0.8379635551666538	experiment	images
6	38	False	Yes	post	../../stimuli/shapes/target_wombat.jpg	1	0.3791768733536011	experiment	images
6	38	False	Yes	post	../../stimuli/shapes/target_platypus.jpg	0	0.8568572601874822	experiment	images
6	38	False	Yes	post	../../stimuli/images/target_capybara.jpg	0	0.9430744578954527	experiment	images
6	38	False	Yes	post	../../stimuli/shapes/target_wombat.jpg	1	0.7204266797823653	experiment	images
6	38	False	Yes	post	../../stimuli/shapes/target_wombat.jpg	1	0.9586127494366454	experiment	images
6	38	False	Yes	post	../../stimuli/shapes/target_wombat.jpg	1	0.8787872185983141	experiment	images
